<?xml version="1.0" encoding="UTF-8" ?>
<testsuite tests="1" failures="0" name="GreetingServletTest" time="0.003" errors="0" skipped="0">
  <properties>
    <property name="java.runtime.name" value="Java(TM) SE Runtime Environment"/>
    <property name="sun.boot.library.path" value="C:\Program Files\Java\jdk1.8.0_51\jre\bin"/>
    <property name="java.vm.version" value="25.51-b03"/>
    <property name="java.vm.vendor" value="Oracle Corporation"/>
    <property name="java.vendor.url" value="http://java.oracle.com/"/>
    <property name="path.separator" value=";"/>
    <property name="java.vm.name" value="Java HotSpot(TM) 64-Bit Server VM"/>
    <property name="file.encoding.pkg" value="sun.io"/>
    <property name="user.script" value=""/>
    <property name="user.country" value="US"/>
    <property name="sun.java.launcher" value="SUN_STANDARD"/>
    <property name="sun.os.patch.level" value=""/>
    <property name="java.vm.specification.name" value="Java Virtual Machine Specification"/>
    <property name="user.dir" value="D:\Maven projects\Gatling\MockitoPOC"/>
    <property name="java.runtime.version" value="1.8.0_51-b16"/>
    <property name="java.awt.graphicsenv" value="sun.awt.Win32GraphicsEnvironment"/>
    <property name="basedir" value="D:\Maven projects\Gatling\MockitoPOC"/>
    <property name="java.endorsed.dirs" value="C:\Program Files\Java\jdk1.8.0_51\jre\lib\endorsed"/>
    <property name="os.arch" value="amd64"/>
    <property name="surefire.real.class.path" value="D:\Maven projects\Gatling\MockitoPOC\target\surefire\surefirebooter3394753695366849058.jar"/>
    <property name="java.io.tmpdir" value="C:\Users\GAURAN~1\AppData\Local\Temp\"/>
    <property name="line.separator" value="
"/>
    <property name="java.vm.specification.vendor" value="Oracle Corporation"/>
    <property name="user.variant" value=""/>
    <property name="os.name" value="Windows 8.1"/>
    <property name="sun.jnu.encoding" value="Cp1252"/>
    <property name="java.library.path" value="C:\Program Files\Java\jdk1.8.0_51\jre\bin;C:\Windows\Sun\Java\bin;C:\Windows\system32;C:\Windows;C:\Program Files\ConEmuPack.160111;C:\Program Files\ConEmuPack.160111\ConEmu;C:\ProgramData\Oracle\Java\javapath;C:\Program Files (x86)\Intel\iCLS Client\;C:\Program Files\Intel\iCLS Client\;C:\Windows\system32;C:\Windows;C:\Windows\System32\Wbem;C:\Windows\System32\WindowsPowerShell\v1.0\;C:\Program Files\Intel\Intel(R) Management Engine Components\DAL;C:\Program Files\Intel\Intel(R) Management Engine Components\IPT;C:\Program Files (x86)\Intel\Intel(R) Management Engine Components\DAL;C:\Program Files (x86)\Intel\Intel(R) Management Engine Components\IPT;C:\apache-maven-3.0.3\bin;D:\sonar-runner-2.4\bin;C:\Program Files (x86)\MySQL\MySQL Utilities 1.4.3\;C:\Program Files (x86)\MySQL\MySQL Utilities 1.4.3\Doctrine extensions for PHP\;C:\Program Files (x86)\Heroku\bin;C:\Program Files (x86)\git\cmd;C:\Program Files (x86)\Git\cmd;C:\Program Files (x86)\Git\bin;C:\Program Files\nodejs\;C:\Program Files\MongoDB 2.6 Standard\bin;C:\Program Files (x86)\scala\bin;C:\Program Files (x86)\Skype\Phone\;C:\Program Files (x86)\sbt\bin;C:\Program Files (x86)\scala\bin;C:\Program Files\Java\jdk1.8.0_51\bin;C:\gradle-2.7\bin;C:\Program Files (x86)\Git\share\vim\vim74;C:\HashiCorp\Vagrant\bin;C:\play-2.2.6\play-2.2.6;C:\Program Files\Java\jdk1.8.0_11\bin;C:\apache-maven-3.0.3;C:\JUnit\junit-4.12-beta-3.jar;.C:\Program Files\Java\jre8\bin;C:\ProgramData\Oracle\Java\javapath;C:\Program Files (x86)\Intel\iCLS Client\;C:\Program Files\Intel\iCLS Client\;C:\Windows\system32;C:\Windows;C:\Windows\System32\Wbem;C:\Windows\System32\WindowsPowerShell\v1.0\;C:\Program Files\Intel\Intel(R) Management Engine Components\DAL;C:\Program Files\Intel\Intel(R) Management Engine Components\IPT;C:\Program Files (x86)\Intel\Intel(R) Management Engine Components\DAL;C:\Program Files (x86)\Intel\Intel(R) Management Engine Components\IPT;C:\apache-maven-3.0.3\bin;D:\sonar-runner-2.4\bin;C:\Program Files (x86)\MySQL\MySQL Utilities 1.4.3\;C:\Program Files (x86)\MySQL\MySQL Utilities 1.4.3\Doctrine extensions for PHP\;C:\Program Files (x86)\Heroku\bin;C:\Program Files (x86)\git\cmd;C:\Program Files (x86)\Git\cmd;C:\Program Files (x86)\Git\bin;C:\Program Files\nodejs\;C:\Program Files\MongoDB 2.6 Standard\bin;C:\Program Files (x86)\scala\bin;C:\Program Files (x86)\Skype\Phone\;C:\Program Files (x86)\sbt\bin;C:\Program Files (x86)\scala\bin;C:\Program Files\Java\jdk1.8.0_51\bin;C:\gradle-2.7\bin;C:\Program Files (x86)\Git\share\vim\vim74;C:\HashiCorp\Vagrant\bin;C:\play-2.2.6\play-2.2.6;C:\wamp\bin\php\php5.4.12;C:\bin;D:\sonar-runner-2.4\bin;C:\Users\gaurangar\AppData\Roaming\npm;C:\Program Files\MySQL\MySQL Server 5.6\bin;."/>
    <property name="surefire.test.class.path" value="D:\Maven projects\Gatling\MockitoPOC\target\test-classes;D:\Maven projects\Gatling\MockitoPOC\target\classes;C:\Users\gaurangar\.m2\repository\junit\junit\4.11\junit-4.11.jar;C:\Users\gaurangar\.m2\repository\org\hamcrest\hamcrest-core\1.3\hamcrest-core-1.3.jar;C:\Users\gaurangar\.m2\repository\javax\servlet\javax.servlet-api\3.1.0\javax.servlet-api-3.1.0.jar;C:\Users\gaurangar\.m2\repository\javax\servlet\jsp\jsp-api\2.2\jsp-api-2.2.jar;C:\Users\gaurangar\.m2\repository\org\mockito\mockito-all\1.9.5\mockito-all-1.9.5.jar;C:\Users\gaurangar\.m2\repository\org\mockito\mockito-core\1.10.19\mockito-core-1.10.19.jar;C:\Users\gaurangar\.m2\repository\org\objenesis\objenesis\2.1\objenesis-2.1.jar;C:\Users\gaurangar\.m2\repository\io\gatling\highcharts\gatling-charts-highcharts\2.1.7\gatling-charts-highcharts-2.1.7.jar;C:\Users\gaurangar\.m2\repository\org\scala-lang\scala-library\2.11.7\scala-library-2.11.7.jar;C:\Users\gaurangar\.m2\repository\io\gatling\gatling-charts\2.1.7\gatling-charts-2.1.7.jar;C:\Users\gaurangar\.m2\repository\io\gatling\gatling-core\2.1.7\gatling-core-2.1.7.jar;C:\Users\gaurangar\.m2\repository\org\scala-lang\scala-reflect\2.11.7\scala-reflect-2.11.7.jar;C:\Users\gaurangar\.m2\repository\com\typesafe\akka\akka-actor_2.11\2.3.12\akka-actor_2.11-2.3.12.jar;C:\Users\gaurangar\.m2\repository\com\typesafe\config\1.2.1\config-1.2.1.jar;C:\Users\gaurangar\.m2\repository\com\dongxiguo\fastring_2.11\0.2.4\fastring_2.11-0.2.4.jar;C:\Users\gaurangar\.m2\repository\net\sf\opencsv\opencsv\2.3\opencsv-2.3.jar;C:\Users\gaurangar\.m2\repository\com\googlecode\concurrentlinkedhashmap\concurrentlinkedhashmap-lru\1.4.2\concurrentlinkedhashmap-lru-1.4.2.jar;C:\Users\gaurangar\.m2\repository\org\threeten\threetenbp\1.2\threetenbp-1.2.jar;C:\Users\gaurangar\.m2\repository\org\scala-lang\modules\scala-parser-combinators_2.11\1.0.4\scala-parser-combinators_2.11-1.0.4.jar;C:\Users\gaurangar\.m2\repository\com\ning\async-http-client\1.9.30\async-http-client-1.9.30.jar;C:\Users\gaurangar\.m2\repository\org\slf4j\slf4j-api\1.7.12\slf4j-api-1.7.12.jar;C:\Users\gaurangar\.m2\repository\com\typesafe\scala-logging\scala-logging_2.11\3.1.0\scala-logging_2.11-3.1.0.jar;C:\Users\gaurangar\.m2\repository\ch\qos\logback\logback-classic\1.1.3\logback-classic-1.1.3.jar;C:\Users\gaurangar\.m2\repository\ch\qos\logback\logback-core\1.1.3\logback-core-1.1.3.jar;C:\Users\gaurangar\.m2\repository\io\gatling\jsonpath_2.11\0.6.4\jsonpath_2.11-0.6.4.jar;C:\Users\gaurangar\.m2\repository\io\fastjson\boon\0.33\boon-0.33.jar;C:\Users\gaurangar\.m2\repository\net\sf\saxon\Saxon-HE\9.6.0-5\Saxon-HE-9.6.0-5.jar;C:\Users\gaurangar\.m2\repository\org\jodd\jodd-lagarto\3.6.6\jodd-lagarto-3.6.6.jar;C:\Users\gaurangar\.m2\repository\org\jodd\jodd-core\3.6.6\jodd-core-3.6.6.jar;C:\Users\gaurangar\.m2\repository\org\jodd\jodd-log\3.6.6\jodd-log-3.6.6.jar;C:\Users\gaurangar\.m2\repository\com\tdunning\t-digest\3.0\t-digest-3.0.jar;C:\Users\gaurangar\.m2\repository\io\gatling\gatling-app\2.1.7\gatling-app-2.1.7.jar;C:\Users\gaurangar\.m2\repository\io\gatling\gatling-http\2.1.7\gatling-http-2.1.7.jar;C:\Users\gaurangar\.m2\repository\io\netty\netty\3.10.4.Final\netty-3.10.4.Final.jar;C:\Users\gaurangar\.m2\repository\com\jcraft\jzlib\1.1.3\jzlib-1.1.3.jar;C:\Users\gaurangar\.m2\repository\org\scala-lang\modules\scala-xml_2.11\1.0.4\scala-xml_2.11-1.0.4.jar;C:\Users\gaurangar\.m2\repository\io\gatling\gatling-jms\2.1.7\gatling-jms-2.1.7.jar;C:\Users\gaurangar\.m2\repository\org\apache\geronimo\specs\geronimo-jms_1.1_spec\1.1.1\geronimo-jms_1.1_spec-1.1.1.jar;C:\Users\gaurangar\.m2\repository\io\gatling\gatling-jdbc\2.1.7\gatling-jdbc-2.1.7.jar;C:\Users\gaurangar\.m2\repository\io\gatling\gatling-redis\2.1.7\gatling-redis-2.1.7.jar;C:\Users\gaurangar\.m2\repository\net\debasishg\redisclient_2.11\2.14\redisclient_2.11-2.14.jar;C:\Users\gaurangar\.m2\repository\commons-pool\commons-pool\1.6\commons-pool-1.6.jar;C:\Users\gaurangar\.m2\repository\io\gatling\gatling-metrics\2.1.7\gatling-metrics-2.1.7.jar;C:\Users\gaurangar\.m2\repository\com\github\scopt\scopt_2.11\3.3.0\scopt_2.11-3.3.0.jar;C:\Users\gaurangar\.m2\repository\io\gatling\gatling-recorder\2.1.7\gatling-recorder-2.1.7.jar;C:\Users\gaurangar\.m2\repository\org\scala-lang\modules\scala-swing_2.11\1.0.2\scala-swing_2.11-1.0.2.jar;C:\Users\gaurangar\.m2\repository\com\fasterxml\jackson\core\jackson-databind\2.6.0-rc1\jackson-databind-2.6.0-rc1.jar;C:\Users\gaurangar\.m2\repository\com\fasterxml\jackson\core\jackson-annotations\2.6.0-rc1\jackson-annotations-2.6.0-rc1.jar;C:\Users\gaurangar\.m2\repository\com\fasterxml\jackson\core\jackson-core\2.6.0-rc1\jackson-core-2.6.0-rc1.jar;C:\Users\gaurangar\.m2\repository\org\bouncycastle\bcpkix-jdk15on\1.52\bcpkix-jdk15on-1.52.jar;C:\Users\gaurangar\.m2\repository\org\bouncycastle\bcprov-jdk15on\1.52\bcprov-jdk15on-1.52.jar;"/>
    <property name="java.specification.name" value="Java Platform API Specification"/>
    <property name="java.class.version" value="52.0"/>
    <property name="sun.management.compiler" value="HotSpot 64-Bit Tiered Compilers"/>
    <property name="os.version" value="6.3"/>
    <property name="user.home" value="C:\Users\gaurangar"/>
    <property name="user.timezone" value="Asia/Calcutta"/>
    <property name="java.awt.printerjob" value="sun.awt.windows.WPrinterJob"/>
    <property name="java.specification.version" value="1.8"/>
    <property name="file.encoding" value="Cp1252"/>
    <property name="user.name" value="gaurangar"/>
    <property name="java.class.path" value="D:\Maven projects\Gatling\MockitoPOC\target\test-classes;D:\Maven projects\Gatling\MockitoPOC\target\classes;C:\Users\gaurangar\.m2\repository\junit\junit\4.11\junit-4.11.jar;C:\Users\gaurangar\.m2\repository\org\hamcrest\hamcrest-core\1.3\hamcrest-core-1.3.jar;C:\Users\gaurangar\.m2\repository\javax\servlet\javax.servlet-api\3.1.0\javax.servlet-api-3.1.0.jar;C:\Users\gaurangar\.m2\repository\javax\servlet\jsp\jsp-api\2.2\jsp-api-2.2.jar;C:\Users\gaurangar\.m2\repository\org\mockito\mockito-all\1.9.5\mockito-all-1.9.5.jar;C:\Users\gaurangar\.m2\repository\org\mockito\mockito-core\1.10.19\mockito-core-1.10.19.jar;C:\Users\gaurangar\.m2\repository\org\objenesis\objenesis\2.1\objenesis-2.1.jar;C:\Users\gaurangar\.m2\repository\io\gatling\highcharts\gatling-charts-highcharts\2.1.7\gatling-charts-highcharts-2.1.7.jar;C:\Users\gaurangar\.m2\repository\org\scala-lang\scala-library\2.11.7\scala-library-2.11.7.jar;C:\Users\gaurangar\.m2\repository\io\gatling\gatling-charts\2.1.7\gatling-charts-2.1.7.jar;C:\Users\gaurangar\.m2\repository\io\gatling\gatling-core\2.1.7\gatling-core-2.1.7.jar;C:\Users\gaurangar\.m2\repository\org\scala-lang\scala-reflect\2.11.7\scala-reflect-2.11.7.jar;C:\Users\gaurangar\.m2\repository\com\typesafe\akka\akka-actor_2.11\2.3.12\akka-actor_2.11-2.3.12.jar;C:\Users\gaurangar\.m2\repository\com\typesafe\config\1.2.1\config-1.2.1.jar;C:\Users\gaurangar\.m2\repository\com\dongxiguo\fastring_2.11\0.2.4\fastring_2.11-0.2.4.jar;C:\Users\gaurangar\.m2\repository\net\sf\opencsv\opencsv\2.3\opencsv-2.3.jar;C:\Users\gaurangar\.m2\repository\com\googlecode\concurrentlinkedhashmap\concurrentlinkedhashmap-lru\1.4.2\concurrentlinkedhashmap-lru-1.4.2.jar;C:\Users\gaurangar\.m2\repository\org\threeten\threetenbp\1.2\threetenbp-1.2.jar;C:\Users\gaurangar\.m2\repository\org\scala-lang\modules\scala-parser-combinators_2.11\1.0.4\scala-parser-combinators_2.11-1.0.4.jar;C:\Users\gaurangar\.m2\repository\com\ning\async-http-client\1.9.30\async-http-client-1.9.30.jar;C:\Users\gaurangar\.m2\repository\org\slf4j\slf4j-api\1.7.12\slf4j-api-1.7.12.jar;C:\Users\gaurangar\.m2\repository\com\typesafe\scala-logging\scala-logging_2.11\3.1.0\scala-logging_2.11-3.1.0.jar;C:\Users\gaurangar\.m2\repository\ch\qos\logback\logback-classic\1.1.3\logback-classic-1.1.3.jar;C:\Users\gaurangar\.m2\repository\ch\qos\logback\logback-core\1.1.3\logback-core-1.1.3.jar;C:\Users\gaurangar\.m2\repository\io\gatling\jsonpath_2.11\0.6.4\jsonpath_2.11-0.6.4.jar;C:\Users\gaurangar\.m2\repository\io\fastjson\boon\0.33\boon-0.33.jar;C:\Users\gaurangar\.m2\repository\net\sf\saxon\Saxon-HE\9.6.0-5\Saxon-HE-9.6.0-5.jar;C:\Users\gaurangar\.m2\repository\org\jodd\jodd-lagarto\3.6.6\jodd-lagarto-3.6.6.jar;C:\Users\gaurangar\.m2\repository\org\jodd\jodd-core\3.6.6\jodd-core-3.6.6.jar;C:\Users\gaurangar\.m2\repository\org\jodd\jodd-log\3.6.6\jodd-log-3.6.6.jar;C:\Users\gaurangar\.m2\repository\com\tdunning\t-digest\3.0\t-digest-3.0.jar;C:\Users\gaurangar\.m2\repository\io\gatling\gatling-app\2.1.7\gatling-app-2.1.7.jar;C:\Users\gaurangar\.m2\repository\io\gatling\gatling-http\2.1.7\gatling-http-2.1.7.jar;C:\Users\gaurangar\.m2\repository\io\netty\netty\3.10.4.Final\netty-3.10.4.Final.jar;C:\Users\gaurangar\.m2\repository\com\jcraft\jzlib\1.1.3\jzlib-1.1.3.jar;C:\Users\gaurangar\.m2\repository\org\scala-lang\modules\scala-xml_2.11\1.0.4\scala-xml_2.11-1.0.4.jar;C:\Users\gaurangar\.m2\repository\io\gatling\gatling-jms\2.1.7\gatling-jms-2.1.7.jar;C:\Users\gaurangar\.m2\repository\org\apache\geronimo\specs\geronimo-jms_1.1_spec\1.1.1\geronimo-jms_1.1_spec-1.1.1.jar;C:\Users\gaurangar\.m2\repository\io\gatling\gatling-jdbc\2.1.7\gatling-jdbc-2.1.7.jar;C:\Users\gaurangar\.m2\repository\io\gatling\gatling-redis\2.1.7\gatling-redis-2.1.7.jar;C:\Users\gaurangar\.m2\repository\net\debasishg\redisclient_2.11\2.14\redisclient_2.11-2.14.jar;C:\Users\gaurangar\.m2\repository\commons-pool\commons-pool\1.6\commons-pool-1.6.jar;C:\Users\gaurangar\.m2\repository\io\gatling\gatling-metrics\2.1.7\gatling-metrics-2.1.7.jar;C:\Users\gaurangar\.m2\repository\com\github\scopt\scopt_2.11\3.3.0\scopt_2.11-3.3.0.jar;C:\Users\gaurangar\.m2\repository\io\gatling\gatling-recorder\2.1.7\gatling-recorder-2.1.7.jar;C:\Users\gaurangar\.m2\repository\org\scala-lang\modules\scala-swing_2.11\1.0.2\scala-swing_2.11-1.0.2.jar;C:\Users\gaurangar\.m2\repository\com\fasterxml\jackson\core\jackson-databind\2.6.0-rc1\jackson-databind-2.6.0-rc1.jar;C:\Users\gaurangar\.m2\repository\com\fasterxml\jackson\core\jackson-annotations\2.6.0-rc1\jackson-annotations-2.6.0-rc1.jar;C:\Users\gaurangar\.m2\repository\com\fasterxml\jackson\core\jackson-core\2.6.0-rc1\jackson-core-2.6.0-rc1.jar;C:\Users\gaurangar\.m2\repository\org\bouncycastle\bcpkix-jdk15on\1.52\bcpkix-jdk15on-1.52.jar;C:\Users\gaurangar\.m2\repository\org\bouncycastle\bcprov-jdk15on\1.52\bcprov-jdk15on-1.52.jar;"/>
    <property name="java.vm.specification.version" value="1.8"/>
    <property name="sun.arch.data.model" value="64"/>
    <property name="java.home" value="C:\Program Files\Java\jdk1.8.0_51\jre"/>
    <property name="sun.java.command" value="D:\Maven projects\Gatling\MockitoPOC\target\surefire\surefirebooter3394753695366849058.jar D:\Maven projects\Gatling\MockitoPOC\target\surefire\surefire8424487636716487360tmp D:\Maven projects\Gatling\MockitoPOC\target\surefire\surefire2393607887000117245tmp"/>
    <property name="java.specification.vendor" value="Oracle Corporation"/>
    <property name="user.language" value="en"/>
    <property name="awt.toolkit" value="sun.awt.windows.WToolkit"/>
    <property name="java.vm.info" value="mixed mode"/>
    <property name="java.version" value="1.8.0_51"/>
    <property name="java.ext.dirs" value="C:\Program Files\Java\jdk1.8.0_51\jre\lib\ext;C:\Windows\Sun\Java\lib\ext"/>
    <property name="sun.boot.class.path" value="C:\Program Files\Java\jdk1.8.0_51\jre\lib\resources.jar;C:\Program Files\Java\jdk1.8.0_51\jre\lib\rt.jar;C:\Program Files\Java\jdk1.8.0_51\jre\lib\sunrsasign.jar;C:\Program Files\Java\jdk1.8.0_51\jre\lib\jsse.jar;C:\Program Files\Java\jdk1.8.0_51\jre\lib\jce.jar;C:\Program Files\Java\jdk1.8.0_51\jre\lib\charsets.jar;C:\Program Files\Java\jdk1.8.0_51\jre\lib\jfr.jar;C:\Program Files\Java\jdk1.8.0_51\jre\classes"/>
    <property name="java.vendor" value="Oracle Corporation"/>
    <property name="localRepository" value="C:\Users\gaurangar\.m2\repository"/>
    <property name="file.separator" value="\"/>
    <property name="java.vendor.url.bug" value="http://bugreport.sun.com/bugreport/"/>
    <property name="sun.cpu.endian" value="little"/>
    <property name="sun.io.unicode.encoding" value="UnicodeLittle"/>
    <property name="sun.desktop" value="windows"/>
    <property name="sun.cpu.isalist" value="amd64"/>
  </properties>
  <testcase classname="GreetingServletTest" name="testDoGet" time="0"/>
</testsuite>